05_PSaturn/tb_saturn_bus_ctrl.vcd
$date
	Thu Sep 14 12:40:36 2017
$end
$version
	Icarus Verilog
$end
$timescale
	1ns
$end
$scope module tb_llf2_alru $end
$var wire 16 ! bus_data_in [15:0] $end
$var wire 20 " bus_addr_o [19:0] $end
$var reg 1 # clk $end
$var reg 20 $ data_addr_in [19:0] $end
$var reg 64 % data_data_in [63:0] $end
$var reg 16 & data_mask_in [15:0] $end
$var reg 4 ' data_size_in [3:0] $end
$var reg 20 ( ibus_addr_in [19:0] $end
$var reg 1 ) ibus_fetch_ack_in $end
$var reg 1 * ibus_fetch_in $end
$var reg 1 + ibus_flush_q_in $end
$var reg 5 , ibus_size_in [4:0] $end
$scope module bus_ctrl $end
$var wire 20 - bus_addr_o [19:0] $end
$var wire 16 . bus_data_in [15:0] $end
$var wire 16 / bus_data_io [15:0] $end
$var wire 16 0 bus_data_o [15:0] $end
$var wire 1 1 bus_rd_o $end
$var wire 1 2 bus_we_o $end
$var wire 1 # clk_in $end
$var wire 20 3 data_addr_in [19:0] $end
$var wire 64 4 data_data_in [63:0] $end
$var wire 64 5 data_data_o [63:0] $end
$var wire 16 6 data_mask_in [15:0] $end
$var wire 4 7 data_size_in [3:0] $end
$var wire 20 8 ibus_addr_in [19:0] $end
$var wire 20 9 ibus_addr_o [19:0] $end
$var wire 1 ) ibus_fetch_ack_in $end
$var wire 1 * ibus_fetch_in $end
$var wire 1 + ibus_flush_q_in $end
$var wire 5 : ibus_pre_fetched_opcode_length_o [4:0] $end
$var wire 84 ; ibus_pre_fetched_opcode_o [83:0] $end
$var wire 1 < ibus_ready_o $end
$var wire 5 = ibus_size_in [4:0] $end
$var wire 5 > size_in_prefetch [4:0] $end
$var reg 20 ? bus_addr [19:0] $end
$var reg 1 @ bus_rd $end
$var reg 4 A bus_state [3:0] $end
$var reg 1 B bus_we $end
$var reg 1 C ibus_ready $end
$var reg 5 D nibbles_in_queue [4:0] $end
$var reg 96 E pre_fetch_buffer [95:0] $end
$var reg 84 F pre_fetched_opcode [83:0] $end
$var reg 5 G pre_fetched_opcode_length [4:0] $end
$scope module predec $end
$var wire 5 H nibbles_in_queue_in [4:0] $end
$var wire 1 I op_is_la $end
$var wire 1 J op_is_size_2 $end
$var wire 1 K op_is_size_3 $end
$var wire 1 L op_is_size_3b $end
$var wire 1 M op_is_size_4 $end
$var wire 1 N op_is_size_4b $end
$var wire 1 O op_is_size_5 $end
$var wire 1 P op_is_size_5b $end
$var wire 1 Q op_is_size_6 $end
$var wire 1 R op_is_size_6b $end
$var wire 1 S op_is_size_7 $end
$var wire 1 T op_is_size_7b $end
$var wire 20 U opcode_in [19:0] $end
$var wire 5 V size_o [4:0] $end
$var wire 4 W op4 [3:0] $end
$var wire 1 X op3_F $end
$var wire 1 Y op3_E $end
$var wire 1 Z op3_D $end
$var wire 1 [ op3_C $end
$var wire 1 \ op3_B $end
$var wire 1 ] op3_A $end
$var wire 1 ^ op3_9 $end
$var wire 1 _ op3_8 $end
$var wire 1 ` op3_7 $end
$var wire 1 a op3_6 $end
$var wire 1 b op3_5 $end
$var wire 1 c op3_4 $end
$var wire 1 d op3_3 $end
$var wire 1 e op3_2 $end
$var wire 1 f op3_1 $end
$var wire 1 g op3_0 $end
$var wire 4 h op3 [3:0] $end
$var wire 1 i op2_F $end
$var wire 1 j op2_E $end
$var wire 1 k op2_D $end
$var wire 1 l op2_C $end
$var wire 1 m op2_B $end
$var wire 1 n op2_A $end
$var wire 1 o op2_9 $end
$var wire 1 p op2_8 $end
$var wire 1 q op2_7 $end
$var wire 1 r op2_6 $end
$var wire 1 s op2_5 $end
$var wire 1 t op2_4 $end
$var wire 1 u op2_3 $end
$var wire 1 v op2_2 $end
$var wire 1 w op2_1 $end
$var wire 1 x op2_0 $end
$var wire 4 y op2 [3:0] $end
$var wire 1 z op1_F $end
$var wire 1 { op1_E $end
$var wire 1 | op1_D $end
$var wire 1 } op1_C $end
$var wire 1 ~ op1_B $end
$var wire 1 !" op1_A $end
$var wire 1 "" op1_9 $end
$var wire 1 #" op1_8 $end
$var wire 1 $" op1_7 $end
$var wire 1 %" op1_6 $end
$var wire 1 &" op1_5 $end
$var wire 1 '" op1_4 $end
$var wire 1 (" op1_3 $end
$var wire 1 )" op1_2 $end
$var wire 1 *" op1_1 $end
$var wire 1 +" op1_0 $end
$var wire 4 ," op1 [3:0] $end
$var wire 1 -" op0_F $end
$var wire 1 ." op0_E $end
$var wire 1 /" op0_D $end
$var wire 1 0" op0_C $end
$var wire 1 1" op0_B $end
$var wire 1 2" op0_A $end
$var wire 1 3" op0_9 $end
$var wire 1 4" op0_8 $end
$var wire 1 5" op0_7 $end
$var wire 1 6" op0_6 $end
$var wire 1 7" op0_5 $end
$var wire 1 8" op0_4 $end
$var wire 1 9" op0_3 $end
$var wire 1 :" op0_2 $end
$var wire 1 ;" op0_1 $end
$var wire 1 <" op0_0 $end
$var wire 4 =" op0 [3:0] $end
$var reg 5 >" size [4:0] $end
$upscope $end
$upscope $end
$upscope $end
$enddefinitions $end
#0
$dumpvars
b101 >"
bx ="
x<"
x;"
x:"
x9"
x8"
x7"
x6"
x5"
x4"
x3"
x2"
x1"
x0"
x/"
x."
x-"
bx ,"
x+"
x*"
x)"
x("
x'"
x&"
x%"
x$"
x#"
x""
x!"
x~
x}
x|
x{
xz
bx y
xx
xw
xv
xu
xt
xs
xr
xq
xp
xo
xn
xm
xl
xk
xj
xi
bx h
xg
xf
xe
xd
xc
xb
xa
x`
x_
x^
x]
x\
x[
xZ
xY
xX
bx W
b101 V
bx U
xT
xS
xR
xQ
xP
xO
xN
xM
xL
xK
xJ
xI
b0 H
b0 G
bx F
bx E
b0 D
xC
0B
b0 A
0@
b0 ?
b101 >
b0 =
z<
bx ;
b0 :
bz 9
b0 8
b0 7
b0 6
bz 5
b0 4
b0 3
12
11
bz 0
bz /
b100001100000010 .
b0 -
b0 ,
0+
1*
1)
b0 (
b0 '
b0 &
b0 %
b0 $
0#
b0 "
b100001100000010 !
$end
#100
01
1@
0C
b1 A
1#
#200
0#
#300
0K
b10 >
b10 V
b10 >"
1J
0M
0S
0Q
0P
0R
0T
0N
0L
0I
0<"
0;"
1:"
09"
08"
07"
06"
05"
04"
0O
03"
02"
01"
00"
0/"
0."
0-"
b10 ="
1+"
0*"
0)"
0("
0'"
0&"
0%"
0$"
0#"
0""
0!"
0~
0}
0|
0{
0z
b0 ,"
0x
0w
0v
1u
0t
0s
0r
0q
0p
0o
0n
0m
0l
0k
0j
0i
b11 y
0g
0f
0e
0d
1c
0b
0a
0`
0_
0^
0]
0\
0[
0Z
0Y
0X
b100 h
11
b111101110 !
b111101110 .
bx0100001100000010 U
b10 A
0@
b100 "
b100 -
b100 ?
b100 D
b100 H
bx0100001100000010 E
1#
#400
0#
#500
0J
0:"
19"
b11 ="
0+"
1'"
b100 ,"
xx
xw
xv
xu
xt
xs
xr
xq
xp
xo
xn
xm
xl
xk
xj
xi
bx y
xg
xf
xe
xd
xc
xb
xa
x`
x_
x^
x]
x\
x[
xZ
xY
xX
bx h
bx01000011 U
b111 >
b111 V
b111 >"
bx01000011 E
b11 A
1C
b10 D
b10 H
b10 :
b10 G
bx0100001100000010 ;
bx0100001100000010 F
1#
#600
0#
#700
01
1@
b1 A
0C
1#
#800
0#
#900
0x
0w
0v
0u
0t
0s
0r
0q
0p
0o
0n
0m
0l
0k
1j
0i
b1110 y
0g
0f
0e
0d
0c
0b
0a
0`
0_
0^
0]
0\
0[
0Z
1Y
0X
b1110 h
b1 W
11
b11000000000 !
b11000000000 .
b111 >
b111 V
b111 >"
b11110111001000011 U
b10 A
0@
b1000 "
b1000 -
b1000 ?
b110 D
b110 H
bx000000011110111001000011 E
1#
#1000
0#
#1100
01
b1 A
1@
1#
#1200
0#
#1300
11
b1011100101111 !
b1011100101111 .
b111 >
b111 V
b111 >"
b10 A
0@
b1100 "
b1100 -
b1100 ?
b1010 D
b1010 H
bx0000011000000000000000011110111001000011 E
1#
#1400
0#
#1500
1J
1<"
09"
b0 ="
0'"
1%"
b110 ,"
1x
0j
b0 y
xg
xf
xe
xd
xc
xb
xa
x`
x_
x^
x]
x\
x[
xZ
xY
xX
bx h
bx W
bx000001100000 U
b10 >
b10 V
b10 >"
bx000001100000 E
b11 A
1C
b11 D
b11 H
b111 :
b111 G
bx0000011000000000000000011110111001000011 ;
bx0000011000000000000000011110111001000011 F
1#
#1600
0#
#1700
b10 A
0C
1#
#1800
0#
#1900
xJ
xM
xP
x+"
x*"
x)"
x("
x'"
x&"
x%"
x$"
x#"
x""
x!"
x~
x}
x|
x{
xz
bx ,"
xx
xw
xv
xu
xt
xs
xr
xq
xp
xo
xn
xm
xl
xk
xj
xi
bx y
bx0000 U
b101 >
b101 V
b101 >"
bx0000 E
b11 A
1C
b1 D
b1 H
b10 :
b10 G
bx000001100000 ;
bx000001100000 F
1#
#2000
0#
#2100
01
1@
b1 A
0C
1#
#2200
0#
#2300
b10 >
b10 V
b10 >"
1J
0M
0P
0+"
0*"
0)"
0("
0'"
0&"
0%"
0$"
0#"
0""
0!"
0~
0}
0|
0{
1z
b1111 ,"
0x
0w
1v
0u
0t
0s
0r
0q
0p
0o
0n
0m
0l
0k
0j
0i
b10 y
0g
0f
0e
0d
0c
0b
0a
1`
0_
0^
0]
0\
0[
0Z
0Y
0X
b111 h
b1 W
11
b11000111000010 !
b11000111000010 .
b10111001011110000 U
b10 A
0@
b10000 "
b10000 -
b10000 ?
b101 D
b101 H
bx00010111001011110000 E
1#
#2400
0#
#2500
0<"
1:"
b10 ="
1$"
0z
b111 ,"
1w
0v
b1 y
xg
xf
xe
xd
xc
xb
xa
x`
x_
x^
x]
x\
x[
xZ
xY
xX
bx h
bx W
bx000101110010 U
b10 >
b10 V
b10 >"
bx000101110010 E
b11 A
1C
b11 D
b11 H
bx00010111001011110000 ;
bx00010111001011110000 F
1#
#2600
0#
#2700
b10 A
0C
1#
#2800
0#
#2900
xK
xJ
xM
xS
xQ
xP
1;"
0:"
b1 ="
x+"
x*"
x)"
x("
x'"
x&"
x%"
x$"
x#"
x""
x!"
x~
x}
x|
x{
xz
bx ,"
xx
xw
xv
xu
xt
xs
xr
xq
xp
xo
xn
xm
xl
xk
xj
xi
bx y
bx0001 U
b101 >
b101 V
b101 >"
bx0001 E
b11 A
1C
b1 D
b1 H
bx000101110010 ;
bx000101110010 F
1#
#3000
0#
#3100
01
1@
b1 A
0C
1#
#3200
0#
#3300
b11 >
b11 V
b11 >"
1K
0J
0M
0Q
0S
0P
0+"
0*"
1)"
0("
0'"
0&"
0%"
0$"
0#"
0""
0!"
0~
0}
0|
0{
0z
b10 ,"
0x
0w
0v
0u
0t
0s
0r
0q
0p
0o
0n
0m
1l
0k
0j
0i
b1100 y
0g
1f
0e
0d
0c
0b
0a
0`
0_
0^
0]
0\
0[
0Z
0Y
0X
b1 h
b11 W
11
b101100010110 !
b101100010110 .
b110001110000100001 U
b10 A
0@
b10100 "
b10100 -
b10100 ?
b101 D
b101 H
bx00110001110000100001 E
1#
#3400
0#
#3500
0)"
1("
b11 ,"
xx
xw
xv
xu
xt
xs
xr
xq
xp
xo
xn
xm
xl
xk
xj
xi
bx y
xg
xf
xe
xd
xc
xb
xa
x`
x_
x^
x]
x\
x[
xZ
xY
xX
bx h
bx W
bx00110001 U
b11 >
b11 V
b11 >"
bx00110001 E
b11 A
1C
b10 D
b10 H
b11 :
b11 G
bx00110001110000100001 ;
bx00110001110000100001 F
1#
#3600
0#
#3700
01
1@
b1 A
0C
1#
#3800
0#
#3900
0x
0w
0v
0u
0t
0s
1r
0q
0p
0o
0n
0m
0l
0k
0j
0i
b110 y
0g
1f
0e
0d
0c
0b
0a
0`
0_
0^
0]
0\
0[
0Z
0Y
0X
b1 h
b1011 W
11
b10111101000000 !
b10111101000000 .
b11 >
b11 V
b11 >"
b10110001011000110001 U
b10 A
0@
b11000 "
b11000 -
b11000 ?
b110 D
b110 H
bx000010110001011000110001 E
1#
#4000
0#
#4100
0K
1J
1S
0("
1~
b1011 ,"
1x
0r
b0 y
xg
xf
xe
xd
xc
xb
xa
x`
x_
x^
x]
x\
x[
xZ
xY
xX
bx h
bx W
bx000010110001 U
b10 >
b10 V
b10 >"
bx000010110001 E
b11 A
1C
b11 D
b11 H
bx000010110001011000110001 ;
bx000010110001011000110001 F
1#
#4200
0#
#4300
b10 A
0C
1#
#4400
0#
#4500
xJ
xM
0S
xP
1<"
0;"
b0 ="
x+"
x*"
x)"
x("
x'"
x&"
x%"
x$"
x#"
x""
x!"
x~
x}
x|
x{
xz
bx ,"
xx
xw
xv
xu
xt
xs
xr
xq
xp
xo
xn
xm
xl
xk
xj
xi
bx y
bx0000 U
b101 >
b101 V
b101 >"
bx0000 E
b11 A
1C
b1 D
b1 H
b10 :
b10 G
bx000010110001 ;
bx000010110001 F
1#
#4600
0#
#4700
01
1@
b1 A
0C
1#
#4800
0#
#4900
b10 >
b10 V
b10 >"
1J
0M
0P
1+"
0*"
0)"
0("
0'"
0&"
0%"
0$"
0#"
0""
0!"
0~
0}
0|
0{
0z
b0 ,"
0x
0w
0v
0u
1t
0s
0r
0q
0p
0o
0n
0m
0l
0k
0j
0i
b100 y
0g
0f
0e
0d
0c
0b
0a
0`
0_
0^
0]
0\
0[
0Z
0Y
1X
b1111 h
b10 W
11
b111010001010001 !
b111010001010001 .
b101111010000000000 U
b10 A
0@
b11100 "
b11100 -
b11100 ?
b101 D
b101 H
bx00101111010000000000 E
1#
#5000
0#
#5100
0J
1K
0<"
18"
b100 ="
0+"
1z
b1111 ,"
1v
0t
b10 y
xg
xf
xe
xd
xc
xb
xa
x`
x_
x^
x]
x\
x[
xZ
xY
xX
bx h
bx W
bx001011110100 U
b11 >
b11 V
b11 >"
bx001011110100 E
b11 A
1C
b11 D
b11 H
bx00101111010000000000 ;
bx00101111010000000000 F
1#
#5200
0#
#5300
b10 A
0C
1#
#5400
0#
#5500
xK
xI
xL
xN
xS
xQ
xP
xR
xM
xT
xJ
x<"
x;"
x:"
x9"
x8"
x7"
x6"
x5"
x4"
xO
x3"
x2"
x1"
x0"
x/"
x."
x-"
bx ="
x+"
x*"
x)"
x("
x'"
x&"
x%"
x$"
x#"
x""
x!"
x~
x}
x|
x{
xz
bx ,"
xx
xw
xv
xu
xt
xs
xr
xq
xp
xo
xn
xm
xl
xk
xj
xi
bx y
bx U
b101 >
b101 V
b101 >"
bx E
b11 A
1C
b0 D
b0 H
b11 :
b11 G
bx001011110100 ;
bx001011110100 F
1#
#5600
0#
#5700
01
1@
b1 A
0C
1#
#5800
0#
#5900
0K
0J
b100 >
b100 V
b100 >"
1M
0S
0Q
0P
0R
0T
0N
0L
0I
0<"
1;"
0:"
09"
08"
07"
06"
05"
04"
0O
03"
02"
01"
00"
0/"
0."
0-"
b1 ="
0+"
0*"
0)"
0("
0'"
1&"
0%"
0$"
0#"
0""
0!"
0~
0}
0|
0{
0z
b101 ,"
0x
0w
0v
0u
1t
0s
0r
0q
0p
0o
0n
0m
0l
0k
0j
0i
b100 y
0g
0f
0e
0d
0c
0b
0a
1`
0_
0^
0]
0\
0[
0Z
0Y
0X
b111 h
11
b1000010010001 !
b1000010010001 .
bx0111010001010001 U
b10 A
0@
b100000 "
b100000 -
b100000 ?
b100 D
b100 H
bx0111010001010001 E
1#
#6000
0#
#6100
xM
xI
xL
xN
xS
xQ
xP
xR
xT
xK
xJ
x<"
x;"
x:"
x9"
x8"
x7"
x6"
x5"
x4"
xO
x3"
x2"
x1"
x0"
x/"
x."
x-"
bx ="
x+"
x*"
x)"
x("
x'"
x&"
x%"
x$"
x#"
x""
x!"
x~
x}
x|
x{
xz
bx ,"
xx
xw
xv
xu
xt
xs
xr
xq
xp
xo
xn
xm
xl
xk
xj
xi
bx y
xg
xf
xe
xd
xc
xb
xa
x`
x_
x^
x]
x\
x[
xZ
xY
xX
bx h
bx U
b101 >
b101 V
b101 >"
bx E
b11 A
1C
b0 D
b0 H
b100 :
b100 G
bx0111010001010001 ;
bx0111010001010001 F
1#
#6200
0#
#6300
01
1@
b1 A
0C
1#
#6400
0#
#6500
0K
1J
b10 >
b10 V
b10 >"
1M
0S
0Q
0P
0R
0T
0N
0L
0I
0<"
1;"
0:"
09"
08"
07"
06"
05"
04"
0O
03"
02"
01"
00"
0/"
0."
0-"
b1 ="
0+"
0*"
0)"
0("
0'"
0&"
0%"
0$"
0#"
1""
0!"
0~
0}
0|
0{
0z
b1001 ,"
1x
0w
0v
0u
0t
0s
0r
0q
0p
0o
0n
0m
0l
0k
0j
0i
b0 y
0g
1f
0e
0d
0c
0b
0a
0`
0_
0^
0]
0\
0[
0Z
0Y
0X
b1 h
11
b111000001010001 !
b111000001010001 .
bx0001000010010001 U
b10 A
0@
b100100 "
b100100 -
b100100 ?
b100 D
b100 H
bx0001000010010001 E
1#
#6600
0#
#6700
0M
xP
1<"
0;"
b0 ="
1*"
0""
b1 ,"
xx
xw
xv
xu
xt
xs
xr
xq
xp
xo
xn
xm
xl
xk
xj
xi
bx y
xg
xf
xe
xd
xc
xb
xa
x`
x_
x^
x]
x\
x[
xZ
xY
xX
bx h
bx00010000 U
b10 >
b10 V
b10 >"
bx00010000 E
b11 A
1C
b10 D
b10 H
b10 :
b10 G
bx0001000010010001 ;
bx0001000010010001 F
1#
#6800
0#
#6900
b10 A
0C
1#
#7000
0#
#7100
xJ
xI
xS
xQ
xR
xM
xT
xN
xL
xK
x<"
x;"
x:"
x9"
x8"
x7"
x6"
x5"
x4"
xO
x3"
x2"
x1"
x0"
x/"
x."
x-"
bx ="
x+"
x*"
x)"
x("
x'"
x&"
x%"
x$"
x#"
x""
x!"
x~
x}
x|
x{
xz
bx ,"
bx U
b101 >
b101 V
b101 >"
bx E
b11 A
1C
b0 D
b0 H
bx00010000 ;
bx00010000 F
1#
#7200
0#
#7300
01
1@
b1 A
0C
1#
#7400
0#
#7500
0K
0J
b100 >
b100 V
b100 >"
1M
0S
0Q
0P
0R
0T
0N
0L
0I
0<"
1;"
0:"
09"
08"
07"
06"
05"
04"
0O
03"
02"
01"
00"
0/"
0."
0-"
b1 ="
0+"
0*"
0)"
0("
0'"
1&"
0%"
0$"
0#"
0""
0!"
0~
0}
0|
0{
0z
b101 ,"
1x
0w
0v
0u
0t
0s
0r
0q
0p
0o
0n
0m
0l
0k
0j
0i
b0 y
0g
0f
0e
0d
0c
0b
0a
1`
0_
0^
0]
0\
0[
0Z
0Y
0X
b111 h
11
b10000010010001 !
b10000010010001 .
bx0111000001010001 U
b10 A
0@
b101000 "
b101000 -
b101000 ?
b100 D
b100 H
bx0111000001010001 E
1#
#7600
0#
#7700
xM
xI
xL
xN
xS
xQ
xP
xR
xT
xK
xJ
x<"
x;"
x:"
x9"
x8"
x7"
x6"
x5"
x4"
xO
x3"
x2"
x1"
x0"
x/"
x."
x-"
bx ="
x+"
x*"
x)"
x("
x'"
x&"
x%"
x$"
x#"
x""
x!"
x~
x}
x|
x{
xz
bx ,"
xx
xw
xv
xu
xt
xs
xr
xq
xp
xo
xn
xm
xl
xk
xj
xi
bx y
xg
xf
xe
xd
xc
xb
xa
x`
x_
x^
x]
x\
x[
xZ
xY
xX
bx h
bx U
b101 >
b101 V
b101 >"
bx E
b11 A
1C
b0 D
b0 H
b100 :
b100 G
bx0111000001010001 ;
bx0111000001010001 F
1#
#7800
0#
#7900
01
1@
b1 A
0C
1#
#8000
0#
#8100
0K
1J
b10 >
b10 V
b10 >"
1M
0S
0Q
0I
0P
0R
0T
0N
0L
0<"
1;"
0:"
09"
08"
07"
06"
05"
04"
0O
03"
02"
01"
00"
0/"
0."
0-"
b1 ="
0+"
0*"
0)"
0("
0'"
0&"
0%"
0$"
0#"
1""
0!"
0~
0}
0|
0{
0z
b1001 ,"
1x
0w
0v
0u
0t
0s
0r
0q
0p
0o
0n
0m
0l
0k
0j
0i
b0 y
0g
0f
1e
0d
0c
0b
0a
0`
0_
0^
0]
0\
0[
0Z
0Y
0X
b10 h
11
b1010011111010 !
b1010011111010 .
bx0010000010010001 U
b10 A
0@
b101100 "
b101100 -
b101100 ?
b100 D
b100 H
bx0010000010010001 E
1#
#8200
0#
#8300
0M
1<"
0;"
b0 ="
1)"
0""
b10 ,"
xx
xw
xv
xu
xt
xs
xr
xq
xp
xo
xn
xm
xl
xk
xj
xi
bx y
xg
xf
xe
xd
xc
xb
xa
x`
x_
x^
x]
x\
x[
xZ
xY
xX
bx h
bx00100000 U
b10 >
b10 V
b10 >"
bx00100000 E
b11 A
1C
b10 D
b10 H
b10 :
b10 G
bx0010000010010001 ;
bx0010000010010001 F
1#
#8400
0#
#8500
b10 A
0C
1#
#8600
0#
#8700
xJ
xI
xN
xL
xS
xQ
xR
xP
xM
xT
xK
x<"
x;"
x:"
x9"
x8"
x7"
x6"
x5"
x4"
xO
x3"
x2"
x1"
x0"
x/"
x."
x-"
bx ="
x+"
x*"
x)"
x("
x'"
x&"
x%"
x$"
x#"
x""
x!"
x~
x}
x|
x{
xz
bx ,"
bx U
b101 >
b101 V
b101 >"
bx E
b11 A
1C
b0 D
b0 H
bx00100000 ;
bx00100000 F
1#
#8800
0#
#8900
01
1@
b1 A
0C
1#
#9000
0#
#9100
0J
0M
b11 >
b11 V
b11 >"
0S
0Q
1K
0P
0R
0T
0N
0L
0I
0<"
0;"
0:"
09"
08"
07"
06"
05"
04"
0O
03"
12"
01"
00"
0/"
0."
0-"
b1010 ="
0+"
0*"
0)"
0("
0'"
0&"
0%"
0$"
0#"
0""
0!"
0~
0}
0|
0{
1z
b1111 ,"
0x
0w
0v
0u
1t
0s
0r
0q
0p
0o
0n
0m
0l
0k
0j
0i
b100 y
0g
1f
0e
0d
0c
0b
0a
0`
0_
0^
0]
0\
0[
0Z
0Y
0X
b1 h
11
b1010011100000101 !
b1010011100000101 .
bx0001010011111010 U
b10 A
0@
b110000 "
b110000 -
b110000 ?
b100 D
b100 H
bx0001010011111010 E
1#
#9200
0#
#9300
xJ
xM
xS
xQ
xK
xP
1;"
02"
b1 ="
x+"
x*"
x)"
x("
x'"
x&"
x%"
x$"
x#"
x""
x!"
x~
x}
x|
x{
xz
bx ,"
xx
xw
xv
xu
xt
xs
xr
xq
xp
xo
xn
xm
xl
xk
xj
xi
bx y
xg
xf
xe
xd
xc
xb
xa
x`
x_
x^
x]
x\
x[
xZ
xY
xX
bx h
bx0001 U
b101 >
b101 V
b101 >"
bx0001 E
b11 A
1C
b1 D
b1 H
b11 :
b11 G
bx0001010011111010 ;
bx0001010011111010 F
1#
#9400
0#
#9500
01
1@
b1 A
0C
1#
#9600
0#
#9700
0K
0J
b100 >
b100 V
b100 >"
1M
0Q
0S
0P
0+"
0*"
0)"
0("
0'"
1&"
0%"
0$"
0#"
0""
0!"
0~
0}
0|
0{
0z
b101 ,"
1x
0w
0v
0u
0t
0s
0r
0q
0p
0o
0n
0m
0l
0k
0j
0i
b0 y
0g
0f
0e
0d
0c
0b
0a
1`
0_
0^
0]
0\
0[
0Z
0Y
0X
b111 h
b1010 W
11
b111000000101111 !
b111000000101111 .
b10100111000001010001 U
b10 A
0@
b110100 "
b110100 -
b110100 ?
b101 D
b101 H
bx10100111000001010001 E
1#
#9800
0#
#9900
0M
1K
xP
0;"
12"
b1010 ="
x+"
x*"
x)"
x("
x'"
x&"
x%"
x$"
x#"
x""
x!"
x~
x}
x|
x{
xz
bx ,"
xx
xw
xv
xu
xt
xs
xr
xq
xp
xo
xn
xm
xl
xk
xj
xi
bx y
xg
xf
xe
xd
xc
xb
xa
x`
x_
x^
x]
x\
x[
xZ
xY
xX
bx h
bx W
bx1010 U
b101 >
b101 V
b101 >"
bx1010 E
b11 A
1C
b1 D
b1 H
b100 :
b100 G
bx10100111000001010001 ;
bx10100111000001010001 F
1#
#10000
0#
#10100
01
1@
b1 A
0C
1#
#10200
0#
#10300
0P
0+"
0*"
0)"
0("
0'"
0&"
0%"
0$"
0#"
0""
0!"
0~
0}
0|
0{
1z
b1111 ,"
0x
0w
1v
0u
0t
0s
0r
0q
0p
0o
0n
0m
0l
0k
0j
0i
b10 y
1g
0f
0e
0d
0c
0b
0a
0`
0_
0^
0]
0\
0[
0Z
0Y
0X
b0 h
b111 W
11
b110111100001000 !
b110111100001000 .
b11 >
b11 V
b11 >"
b1110000001011111010 U
b10 A
0@
b111000 "
b111000 -
b111000 ?
b101 D
b101 H
bx01110000001011111010 E
1#
#10400
0#
#10500
1J
0K
1<"
02"
b0 ="
1$"
0z
b111 ,"
xx
xw
xv
xu
xt
xs
xr
xq
xp
xo
xn
xm
xl
xk
xj
xi
bx y
xg
xf
xe
xd
xc
xb
xa
x`
x_
x^
x]
x\
x[
xZ
xY
xX
bx h
bx W
bx01110000 U
b10 >
b10 V
b10 >"
bx01110000 E
b11 A
1C
b10 D
b10 H
b11 :
b11 G
bx01110000001011111010 ;
bx01110000001011111010 F
1#
#10600
0#
#10700
b10 A
0C
1#
#10800
0#
#10900
xJ
xI
xN
xL
xS
xQ
xR
xP
xM
xT
xK
x<"
x;"
x:"
x9"
x8"
x7"
x6"
x5"
x4"
xO
x3"
x2"
x1"
x0"
x/"
x."
x-"
bx ="
x+"
x*"
x)"
x("
x'"
x&"
x%"
x$"
x#"
x""
x!"
x~
x}
x|
x{
xz
bx ,"
bx U
b101 >
b101 V
b101 >"
bx E
b11 A
1C
b0 D
b0 H
b10 :
b10 G
bx01110000 ;
bx01110000 F
1#
#11000
0#
#11100
01
1@
b1 A
0C
1#
#11200
0#
#11300
0P
0J
0K
0L
0M
b100 >
b100 V
b100 >"
1N
0S
0Q
0R
0T
0I
0<"
0;"
0:"
09"
08"
07"
06"
05"
14"
0O
03"
02"
01"
00"
0/"
0."
0-"
b1000 ="
1+"
0*"
0)"
0("
0'"
0&"
0%"
0$"
0#"
0""
0!"
0~
0}
0|
0{
0z
b0 ,"
0x
0w
0v
0u
0t
0s
0r
0q
0p
0o
0n
0m
0l
0k
0j
1i
b1111 y
0g
0f
0e
0d
0c
0b
1a
0`
0_
0^
0]
0\
0[
0Z
0Y
0X
b110 h
11
b101010001010010 !
b101010001010010 .
bx0110111100001000 U
b10 A
0@
b111100 "
b111100 -
b111100 ?
b100 D
b100 H
bx0110111100001000 E
1#
#11400
0#
#11500
xL
xS
xQ
xI
xP
xR
xM
xT
xN
xK
xJ
x<"
x;"
x:"
x9"
x8"
x7"
x6"
x5"
x4"
xO
x3"
x2"
x1"
x0"
x/"
x."
x-"
bx ="
x+"
x*"
x)"
x("
x'"
x&"
x%"
x$"
x#"
x""
x!"
x~
x}
x|
x{
xz
bx ,"
xx
xw
xv
xu
xt
xs
xr
xq
xp
xo
xn
xm
xl
xk
xj
xi
bx y
xg
xf
xe
xd
xc
xb
xa
x`
x_
x^
x]
x\
x[
xZ
xY
xX
bx h
bx U
b101 >
b101 V
b101 >"
bx E
b11 A
1C
b0 D
b0 H
b100 :
b100 G
bx0110111100001000 ;
bx0110111100001000 F
1#
#11600
0#
#11700
01
1@
b1 A
0C
1#
#11800
0#
#11900
0K
b10 >
b10 V
b10 >"
1J
0M
0S
0Q
0P
0R
0T
0N
0L
0I
0<"
0;"
1:"
09"
08"
07"
06"
05"
04"
0O
03"
02"
01"
00"
0/"
0."
0-"
b10 ="
0+"
0*"
0)"
0("
0'"
1&"
0%"
0$"
0#"
0""
0!"
0~
0}
0|
0{
0z
b101 ,"
0x
0w
0v
0u
1t
0s
0r
0q
0p
0o
0n
0m
0l
0k
0j
0i
b100 y
0g
0f
0e
0d
0c
1b
0a
0`
0_
0^
0]
0\
0[
0Z
0Y
0X
b101 h
11
b110000010110000 !
b110000010110000 .
bx0101010001010010 U
b10 A
0@
b1000000 "
b1000000 -
b1000000 ?
b100 D
b100 H
bx0101010001010010 E
1#
#12000
0#
#12100
0J
1K
0:"
18"
b100 ="
xx
xw
xv
xu
xt
xs
xr
xq
xp
xo
xn
xm
xl
xk
xj
xi
bx y
xg
xf
xe
xd
xc
xb
xa
x`
x_
x^
x]
x\
x[
xZ
xY
xX
bx h
bx01010100 U
b11 >
b11 V
b11 >"
bx01010100 E
b11 A
1C
b10 D
b10 H
b10 :
b10 G
bx0101010001010010 ;
bx0101010001010010 F
1#
#12200
0#
#12300
01
1@
b1 A
0C
1#
#12400
0#
#12500
1x
0w
0v
0u
0t
0s
0r
0q
0p
0o
0n
0m
0l
0k
0j
0i
b0 y
0g
0f
0e
0d
0c
0b
0a
0`
0_
0^
0]
1\
0[
0Z
0Y
0X
b1011 h
b0 W
11
b101001110010 !
b101001110010 .
b11 >
b11 V
b11 >"
b1011000001010100 U
b10 A
0@
b1000100 "
b1000100 -
b1000100 ?
b110 D
b110 H
bx011000001011000001010100 E
1#
#12600
0#
#12700
08"
11"
b1011 ="
1+"
0&"
b0 ,"
0x
1r
b110 y
xg
xf
xe
xd
xc
xb
xa
x`
x_
x^
x]
x\
x[
xZ
xY
xX
bx h
bx W
bx011000001011 U
b11 >
b11 V
b11 >"
bx011000001011 E
b11 A
1C
b11 D
b11 H
b11 :
b11 G
bx011000001011000001010100 ;
bx011000001011000001010100 F
1#
#12800
0#
#12900
b10 A
0C
1#
#13000
0#
